<?xml version="1.0" encoding="utf-8"?>
<!-- Generator: Adobe Illustrator 16.0.4, SVG Export Plug-In . SVG Version: 6.00 Build 0)  -->
<!DOCTYPE svg PUBLIC "-//W3C//DTD SVG 1.1 Basic//EN" "http://www.w3.org/Graphics/SVG/1.1/DTD/svg11-basic.dtd">
<svg version="1.1" baseProfile="basic" id="Layer_1"
	 xmlns="http://www.w3.org/2000/svg" xmlns:xlink="http://www.w3.org/1999/xlink" x="0px" y="0px" width="100px" height="60px"
	 viewBox="-17.584 0.661 100 60" xml:space="preserve">
<g id="trace_x5F_surfacehub">
</g>
<g id="svg_x5F_surfacehub">
</g>
<g id="svg_x5F_informationradiators">
</g>
<g id="front_x5F_information_x5F_radiators">
</g>
<g>
	<path fill="#231F20" stroke="#231F20" stroke-width="0.9397" stroke-miterlimit="10" d="M66.505,28.325
		c-3.234-1.593-8.666-2.654-14.272-2.654H13.11c-5.622,0-11.074,1.062-14.34,2.654h-11.35V49.26l0,0
		c-0.25,3.982,6.922,7.329,17.26,7.326h55.326c10.312,0.003,17.571-3.344,17.405-7.326V28.325H66.505z"/>
	<path fill="#231F20" stroke="#FFFFFF" stroke-width="0.9397" stroke-miterlimit="10" d="M60.005,35.651H4.679
		c-10.337,0.004-17.509-3.347-17.26-7.326c0.028-0.437,0.145-0.883,0.355-1.333l8.121-17.223c1.333-2.826,9.102-5.034,17.214-5.034
		h39.123c8.089,0,15.823,2.208,17.1,5.034l7.752,17.227c0.2,0.45,0.306,0.893,0.326,1.329
		C77.576,32.308,70.316,35.655,60.005,35.651z"/>
	<path fill="#FFFFFF" d="M24.81,19.371c-0.422,0.337-0.914,0.653-1.48,0.949c-0.781,0.4-1.414,0.678-1.898,0.836
		c-0.759,0.257-1.551,0.391-2.385,0.397c-0.598,0-1.301-0.066-2.116-0.2c-0.811-0.13-1.566-0.197-2.27-0.197
		c-0.734,0-1.54,0.067-2.418,0.197c-0.879,0.134-1.582,0.204-2.106,0.211c-0.801,0.014-1.556-0.123-2.266-0.408
		c-0.456-0.168-0.999-0.46-1.626-0.868c-0.67-0.433-1.169-0.925-1.5-1.483c-0.348-0.594-0.429-1.16-0.248-1.705
		c0.204-0.611,0.733-1.136,1.585-1.567c0.664-0.345,1.487-0.612,2.464-0.809c0.976-0.197,1.992-0.295,3.059-0.302
		c0.583,0,1.333,0.063,2.255,0.193c0.921,0.126,1.517,0.193,1.784,0.193c0.202,0,0.896-0.077,2.073-0.229
		c1.111-0.141,2.036-0.2,2.785-0.176c2.018,0.06,3.512,0.348,4.479,0.872c-1.885,0.404-2.869,0.978-2.95,1.726
		c-0.06,0.591,0.454,1.087,1.557,1.487c0.503,0.187,1.072,0.331,1.712,0.433C25.148,19.075,24.983,19.226,24.81,19.371L24.81,19.371
		z M20.915,12.561c-0.063,0.418-0.558,0.812-1.488,1.178c-1.132,0.439-2.461,0.696-3.843,0.654
		c-0.007-0.053-0.005-0.105,0.007-0.162c0.088-0.411,0.678-0.851,1.631-1.202c0.475-0.179,1.058-0.327,1.754-0.443
		c0.693-0.116,1.338-0.18,1.938-0.19C20.926,12.452,20.926,12.508,20.915,12.561L20.915,12.561z"/>
	<g>
		<g>
			<path fill="#FFFFFF" d="M35.772,12.617l0.053,1.818h4.692l0.074,0.907h-4.742l0.105,3.72c0.024,0.899,0.717,1.42,2.675,1.42
				c0.918,0,1.593-0.046,2.025-0.091l0.242,1.022c-0.675,0.109-1.761,0.19-3.132,0.19c-1.659-0.004-2.995-0.208-3.843-0.58
				c-0.998-0.401-1.354-1.062-1.347-1.92l0.039-3.762h-2.823l0.039-0.907h2.791l0.018-1.522L35.772,12.617z"/>
			<path fill="#FFFFFF" d="M45.802,14.435l4.254,3.8c0.749,0.646,1.378,1.241,1.898,1.846h0.12c0.309-0.604,0.73-1.199,1.213-1.846
				l2.644-3.8h3.424l-5.509,7.01h-3.389l-8.153-7.01H45.802z"/>
		</g>
	</g>
</g>
<g id="_x34__stroke_7_">
	<g id="Google_Chrome_14_">
		<rect x="6.487" y="4.735" fill="none" width="51.85" height="51.85"/>
		<g id="Google_Chrome_15_">
			<path fill="#EA4435" d="M12.746,13.768C24.802-0.26,47.146,2.509,55.5,18.894c-5.882,0-15.089-0.004-20.078,0
				c-3.613,0-5.951-0.081-8.479,1.251c-2.974,1.564-5.217,4.465-6.001,7.875L12.746,13.768z"/>
			<path fill="#547EBE" d="M23.789,30.657c0,4.757,3.863,8.624,8.617,8.624c4.749,0,8.616-3.867,8.616-8.624
				c0-4.753-3.867-8.62-8.616-8.62C27.652,22.037,23.789,25.904,23.789,30.657z"/>
			<path fill="#34A852" d="M35.749,41.946c-4.837,1.435-10.498-0.158-13.598-5.509c-2.366-4.085-8.617-14.977-11.46-19.93
				C0.739,31.761,9.315,52.549,27.388,56.099L35.749,41.946z"/>
			<path fill="#F8BB15" d="M40.407,22.037c4.029,3.744,4.908,9.815,2.176,14.516C40.53,40.1,33.97,51.171,30.789,56.536
				c18.618,1.146,32.188-17.101,26.057-34.499H40.407z"/>
		</g>
	</g>
</g>
<g>
	<path fill="#21A363" d="M32.402,4.735c-12.369,0-22.391,10.026-22.391,22.391c0,11.721,10.67,21.221,22.391,21.221v8.24
		c13.605-6.901,22.412-18.004,22.412-29.461C54.814,14.761,44.77,4.735,32.402,4.735L32.402,4.735z M29.168,30.663
		c0,2.683-1.448,4.861-3.241,4.861v-4.861H19.45v-9.721h9.725v9.721H29.168z M45.375,30.663c0,2.683-1.448,4.861-3.241,4.861v-4.861
		H35.65v-9.721h9.725V30.663z"/>
</g>
<g>
	<path fill="#F1692E" d="M6.565,12.076L27.691,9.2l0.011,20.376l-21.117,0.12L6.565,12.076z"/>
	<path fill="#90C33E" d="M30.244,8.824l28.008-4.089v24.581l-28.008,0.225V8.824z"/>
	<path fill="#28B1E6" d="M27.68,31.925l0.018,20.394L6.581,49.415L6.579,31.788L27.68,31.925z"/>
	<path fill="#FFC40C" d="M58.26,32.115l-0.008,24.472l-28.008-3.952l-0.043-20.562L58.26,32.115z"/>
</g>
</svg>
