<?xml version="1.0" encoding="utf-8"?>
<!-- Generator: Adobe Illustrator 16.0.4, SVG Export Plug-In . SVG Version: 6.00 Build 0)  -->
<!DOCTYPE svg PUBLIC "-//W3C//DTD SVG 1.1 Basic//EN" "http://www.w3.org/Graphics/SVG/1.1/DTD/svg11-basic.dtd">
<svg version="1.1" baseProfile="basic" xmlns="http://www.w3.org/2000/svg" xmlns:xlink="http://www.w3.org/1999/xlink" x="0px"
	 y="0px" width="150px" height="150px" viewBox="0 0 150 150" xml:space="preserve">
<g id="trace_x5F_surfacehub">
</g>
<g id="svg_x5F_surfacehub">
</g>
<g id="Layer_6">
</g>
<g id="svg_x5F_informationradiators">
	<g>
		<path fill="none" stroke="#000000" stroke-width="3" stroke-miterlimit="10" d="M130.691,71.017c0,0.956-0.665,1.732-1.485,1.732
			H20.794c-0.82,0-1.485-0.776-1.485-1.732V9.271c0-0.957,0.665-1.732,1.485-1.732h108.412c0.82,0,1.485,0.775,1.485,1.732V71.017z"
			/>
		<path fill="none" stroke="#000000" stroke-width="3" stroke-miterlimit="10" d="M130.691,139.935c0,0.956-0.665,1.731-1.485,1.731
			H20.794c-0.82,0-1.485-0.775-1.485-1.731V78.189c0-0.957,0.665-1.732,1.485-1.732h108.412c0.82,0,1.485,0.775,1.485,1.732V139.935
			z"/>
		<g>
			<g>
				<path fill="#010101" d="M119.997,131.084c0.3,0,0.561-0.11,0.779-0.329s0.328-0.479,0.328-0.778v-5.539
					c0-0.301-0.109-0.56-0.328-0.779s-0.479-0.329-0.779-0.329s-0.56,0.11-0.779,0.329c-0.219,0.219-0.328,0.479-0.328,0.779v5.539
					c0,0.299,0.109,0.559,0.328,0.778C119.438,130.975,119.697,131.084,119.997,131.084z"/>
				<path fill="#010101" d="M125.948,128.116c-0.465-0.929-1.119-1.709-1.96-2.337c-0.243-0.185-0.518-0.256-0.823-0.216
					c-0.307,0.041-0.548,0.185-0.728,0.433c-0.185,0.243-0.255,0.515-0.211,0.818c0.043,0.303,0.187,0.547,0.428,0.731
					c0.564,0.427,1.003,0.949,1.311,1.566c0.309,0.617,0.464,1.275,0.464,1.973c0,0.601-0.117,1.173-0.352,1.719
					c-0.233,0.545-0.549,1.016-0.947,1.415c-0.398,0.397-0.87,0.713-1.416,0.948c-0.545,0.233-1.117,0.351-1.717,0.351
					s-1.172-0.117-1.717-0.351c-0.546-0.234-1.018-0.55-1.416-0.948c-0.398-0.398-0.714-0.87-0.947-1.415
					c-0.234-0.545-0.352-1.118-0.352-1.719c0-0.698,0.155-1.355,0.464-1.973c0.308-0.617,0.746-1.139,1.311-1.566
					c0.242-0.186,0.385-0.429,0.429-0.731c0.043-0.303-0.027-0.575-0.212-0.818c-0.179-0.248-0.418-0.392-0.723-0.433
					c-0.304-0.04-0.578,0.031-0.826,0.216c-0.843,0.628-1.497,1.408-1.961,2.337c-0.466,0.929-0.696,1.918-0.696,2.968
					c0,0.9,0.175,1.76,0.526,2.579c0.353,0.818,0.826,1.525,1.421,2.12c0.594,0.594,1.302,1.068,2.119,1.419
					c0.82,0.352,1.68,0.526,2.58,0.526s1.76-0.175,2.58-0.526c0.817-0.352,1.525-0.826,2.119-1.419
					c0.595-0.595,1.068-1.302,1.42-2.12c0.353-0.819,0.527-1.679,0.527-2.579C126.644,130.034,126.413,129.045,125.948,128.116z"/>
			</g>
		</g>
		<g>
			<g>
				<path fill="#010101" d="M119.997,61.834c0.3,0,0.561-0.109,0.779-0.328c0.219-0.22,0.328-0.48,0.328-0.779v-5.538
					c0-0.301-0.109-0.56-0.328-0.779s-0.479-0.33-0.779-0.33s-0.56,0.11-0.779,0.33c-0.219,0.219-0.328,0.479-0.328,0.779v5.538
					c0,0.299,0.109,0.559,0.328,0.779C119.438,61.725,119.697,61.834,119.997,61.834z"/>
				<path fill="#010101" d="M125.947,58.865c-0.465-0.928-1.119-1.707-1.96-2.336c-0.242-0.184-0.517-0.256-0.822-0.216
					c-0.307,0.04-0.548,0.185-0.728,0.433c-0.185,0.242-0.255,0.514-0.211,0.818c0.042,0.303,0.186,0.547,0.428,0.731
					c0.564,0.427,1.002,0.949,1.311,1.566c0.308,0.618,0.464,1.275,0.464,1.973c0,0.601-0.117,1.174-0.352,1.719
					c-0.233,0.545-0.549,1.016-0.947,1.414c-0.398,0.398-0.87,0.714-1.416,0.947c-0.545,0.233-1.117,0.351-1.717,0.351
					s-1.172-0.117-1.717-0.351c-0.546-0.233-1.018-0.549-1.416-0.947c-0.398-0.398-0.713-0.869-0.947-1.414
					c-0.234-0.545-0.352-1.118-0.352-1.719c0-0.697,0.156-1.354,0.465-1.973c0.308-0.617,0.745-1.139,1.31-1.566
					c0.242-0.186,0.386-0.428,0.429-0.731c0.043-0.304-0.027-0.576-0.212-0.818c-0.179-0.248-0.418-0.393-0.722-0.433
					c-0.305-0.04-0.579,0.032-0.827,0.216c-0.842,0.629-1.496,1.408-1.96,2.336c-0.466,0.93-0.696,1.919-0.696,2.969
					c0,0.9,0.175,1.76,0.526,2.579c0.353,0.819,0.826,1.525,1.421,2.12c0.594,0.594,1.302,1.067,2.119,1.418
					c0.819,0.352,1.679,0.529,2.579,0.529s1.76-0.177,2.579-0.529c0.817-0.352,1.525-0.825,2.119-1.418
					c0.595-0.594,1.068-1.301,1.421-2.12c0.352-0.819,0.526-1.679,0.526-2.579C126.643,60.784,126.412,59.795,125.947,58.865z"/>
			</g>
		</g>
	</g>
</g>
<g id="front_x5F_information_x5F_radiators">
</g>
<g id="Layer_5">
</g>
</svg>
